/* XPM */
static char * multisystem_vbox_xpm[] = {
"32 32 525 2",
"  	c None",
". 	c #E3E9EF",
"+ 	c #E7EBF0",
"@ 	c #E5EAEF",
"# 	c #DBE0E4",
"$ 	c #C6D6E2",
"% 	c #E5EAF0",
"& 	c #DFE8EF",
"* 	c #E7ECF0",
"= 	c #EBEFF3",
"- 	c #D0D8DF",
"; 	c #7FABC7",
"> 	c #73AACB",
", 	c #9CC0D9",
"' 	c #689DC2",
") 	c #B8CEE0",
"! 	c #E3EBF3",
"~ 	c #DDE7F1",
"{ 	c #E8EDF2",
"] 	c #F1F2F5",
"^ 	c #C1CED8",
"/ 	c #6A99B8",
"( 	c #89B7D4",
"_ 	c #C8DBE9",
": 	c #85B0CF",
"< 	c #699DC5",
"[ 	c #B5CEE2",
"} 	c #ABC7DD",
"| 	c #6295BF",
"1 	c #ACC6DD",
"2 	c #E0EAF6",
"3 	c #D7E5F3",
"4 	c #DEE9F4",
"5 	c #EAEEF2",
"6 	c #F4F3F3",
"7 	c #B4C5D3",
"8 	c #5A8BB1",
"9 	c #9DBFD9",
"0 	c #B7CFE0",
"a 	c #74A2C4",
"b 	c #AFCADD",
"c 	c #87B0CD",
"d 	c #86AECD",
"e 	c #B7CFE1",
"f 	c #5B90BC",
"g 	c #BFD4E4",
"h 	c #B6CCE0",
"i 	c #6191BB",
"j 	c #9FBBD6",
"k 	c #DBE8F6",
"l 	c #D1E2F4",
"m 	c #D8E7F5",
"n 	c #EEF2F6",
"o 	c #ECEFF3",
"p 	c #F3F4F6",
"q 	c #98AFC2",
"r 	c #5785B0",
"s 	c #A9C5DD",
"t 	c #ACC6DC",
"u 	c #6296BD",
"v 	c #5D93BA",
"w 	c #7CA8C7",
"x 	c #E8EFF4",
"y 	c #AAC6DA",
"z 	c #E3ECF2",
"A 	c #B3CCDF",
"B 	c #E4ECF3",
"C 	c #6697BE",
"D 	c #6093BB",
"E 	c #ABC5DA",
"F 	c #ACC5DA",
"G 	c #6E95BA",
"H 	c #93AEC8",
"I 	c #C9DBEE",
"J 	c #CCE1F6",
"K 	c #D0E3F6",
"L 	c #C5C9DA",
"M 	c #F5F6F8",
"N 	c #E4E9EF",
"O 	c #7598BD",
"P 	c #779AC1",
"Q 	c #CCDBE9",
"R 	c #6F9BC0",
"S 	c #6E9DC1",
"T 	c #5991B7",
"U 	c #8FB4CE",
"V 	c #99BAD3",
"W 	c #BDD2E2",
"X 	c #6796BF",
"Y 	c #5F91BC",
"Z 	c #BED3E3",
"` 	c #ADC7DC",
" .	c #5A8DB4",
"..	c #ADC7DD",
"+.	c #D5E8FB",
"@.	c #DCEEFD",
"#.	c #C3CBD8",
"$.	c #ADB6C8",
"%.	c #BCBED2",
"&.	c #B4B5C7",
"*.	c #DFDFE5",
"=.	c #F8F9FB",
"-.	c #F7F8F9",
";.	c #CAD6E4",
">.	c #567FB0",
",.	c #A1B9D3",
"'.	c #BFD2E2",
").	c #5C8EB6",
"!.	c #5C91B7",
"~.	c #588FB6",
"{.	c #78A3C4",
"].	c #CDDDE9",
"^.	c #5286B5",
"/.	c #A9C2DB",
"(.	c #C2D3E5",
"_.	c #5285B7",
":.	c #99B9D7",
"<.	c #E0EEFB",
"[.	c #D8E9F9",
"}.	c #DDE5F1",
"|.	c #9CA3BA",
"1.	c #909AB2",
"2.	c #C3C6D8",
"3.	c #A7B0C2",
"4.	c #C6BFCC",
"5.	c #C5C3CC",
"6.	c #F0F0F2",
"7.	c #F4F6F9",
"8.	c #FCFCFC",
"9.	c #AFC1D9",
"0.	c #4F7BAD",
"a.	c #BECFE0",
"b.	c #B4CBDC",
"c.	c #5288B1",
"d.	c #5188B1",
"e.	c #97B7D1",
"f.	c #E5ECF3",
"g.	c #648FBD",
"h.	c #80A2CB",
"i.	c #DCE9F6",
"j.	c #DCEAF9",
"k.	c #EBF4FC",
"l.	c #B3B8CE",
"m.	c #818BAD",
"n.	c #8D97B1",
"o.	c #959FB8",
"p.	c #C6C8D8",
"q.	c #7899AC",
"r.	c #5491AB",
"s.	c #BBBCC7",
"t.	c #C0BBC4",
"u.	c #DBD6D8",
"v.	c #F9FAFB",
"w.	c #F3F5F7",
"x.	c #93B0CC",
"y.	c #5987B1",
"z.	c #C9D9E5",
"A.	c #D0DEE9",
"B.	c #85ABC6",
"C.	c #5F8FB6",
"D.	c #CCDBEC",
"E.	c #E9F2FB",
"F.	c #F0F8FF",
"G.	c #CACFE1",
"H.	c #7F88B1",
"I.	c #8D93B7",
"J.	c #6E90AD",
"K.	c #3C7B99",
"L.	c #99A4C0",
"M.	c #C9CAD9",
"N.	c #8EA6B6",
"O.	c #4191AB",
"P.	c #3183A2",
"Q.	c #84A3B5",
"R.	c #D3C8CA",
"S.	c #CCC3C2",
"T.	c #ECE7E5",
"U.	c #FBFCFE",
"V.	c #F7F8FA",
"W.	c #E3EBF2",
"X.	c #709ABC",
"Y.	c #4C83AB",
"Z.	c #B3CBDC",
"`.	c #F7FBFF",
" +	c #EBF3FB",
".+	c #E7ECF5",
"++	c #8C93BE",
"@+	c #7A83B2",
"#+	c #8290B2",
"$+	c #4888A1",
"%+	c #3C87A5",
"&+	c #5588A1",
"*+	c #96A5C3",
"=+	c #CDCDDB",
"-+	c #9DADBC",
";+	c #3F95AD",
">+	c #238AA8",
",+	c #2C88A7",
"'+	c #4388A5",
")+	c #B6BBC0",
"!+	c #D6CAC3",
"~+	c #DCD0C8",
"{+	c #F7F6F4",
"]+	c #FFFFFF",
"^+	c #F8FAFC",
"/+	c #F1F6FB",
"(+	c #FCFFFF",
"_+	c #A9AFD1",
":+	c #6972AD",
"<+	c #8185B6",
"[+	c #618BA6",
"}+	c #2F829B",
"|+	c #2B86A4",
"1+	c #358AAB",
"2+	c #618EA8",
"3+	c #99A9C7",
"4+	c #D1D1DE",
"5+	c #A6B2BF",
"6+	c #3490AA",
"7+	c #C9E3EA",
"8+	c #1C90AF",
"9+	c #1988AA",
"0+	c #2480A3",
"a+	c #729CB0",
"b+	c #DBCEC5",
"c+	c #D8CABC",
"d+	c #EBE1D6",
"e+	c #FCFDFE",
"f+	c #CCD0E6",
"g+	c #6A73B3",
"h+	c #7379B5",
"i+	c #7287AD",
"j+	c #3D859C",
"k+	c #25849F",
"l+	c #1985A4",
"m+	c #1A87A9",
"n+	c #3A90B0",
"o+	c #638FA9",
"p+	c #A0B1CE",
"q+	c #D5D4E0",
"r+	c #B1B7C3",
"s+	c #61ABBE",
"t+	c #D3E8EE",
"u+	c #89C6D5",
"v+	c #2195B5",
"w+	c #2192B4",
"x+	c #2287AA",
"y+	c #3682A5",
"z+	c #A5B3B9",
"A+	c #EAD6C3",
"B+	c #E3D0BB",
"C+	c #AEB4DB",
"D+	c #646DB1",
"E+	c #747CB3",
"F+	c #5687A0",
"G+	c #2E829B",
"H+	c #1C83A0",
"I+	c #1084A5",
"J+	c #2992B2",
"K+	c #71B4CA",
"L+	c #AFD0DD",
"M+	c #5A8BA8",
"N+	c #A3B5D4",
"O+	c #D8D7E2",
"P+	c #C2BECA",
"Q+	c #1785A1",
"R+	c #B1D7E1",
"S+	c #D4EAEF",
"T+	c #7DC1D2",
"U+	c #2D9AB7",
"V+	c #0F87AC",
"W+	c #2287AC",
"X+	c #3884A7",
"Y+	c #90AAB5",
"Z+	c #E3D1BC",
"`+	c #ABB0D9",
" @	c #787BB6",
".@	c #418597",
"+@	c #31839D",
"@@	c #1E83A1",
"#@	c #1585A6",
"$@	c #0480A5",
"%@	c #9ACCDB",
"&@	c #87BDD1",
"*@	c #ADCFDC",
"=@	c #628FAD",
"-@	c #A2B5D5",
";@	c #D6C9D1",
">@	c #2B83A5",
",@	c #65AAC0",
"'@	c #AAD4E0",
")@	c #198EAD",
"!@	c #9BCFDC",
"~@	c #5FB0C7",
"{@	c #1987AB",
"]@	c #3389AD",
"^@	c #8CAAB8",
"/@	c #E4D1BE",
"(@	c #AEB2DA",
"_@	c #7E81B6",
":@	c #388199",
"<@	c #29839F",
"[@	c #1983A3",
"}@	c #3697B5",
"|@	c #A0CEDC",
"1@	c #9BCBDA",
"2@	c #74B0C7",
"3@	c #257BA0",
"4@	c #799BB7",
"5@	c #A0B4D5",
"6@	c #E2D4DD",
"7@	c #3B7B9F",
"8@	c #3E89AC",
"9@	c #3590B1",
"0@	c #4CA1BD",
"a@	c #B6DAE4",
"b@	c #7ABCCF",
"c@	c #7CBBCF",
"d@	c #4D99B9",
"e@	c #8CACBB",
"f@	c #E4D3C2",
"g@	c #B1B4D9",
"h@	c #8385B7",
"i@	c #2F7F99",
"j@	c #70ADC2",
"k@	c #73B3C9",
"l@	c #A4CEDD",
"m@	c #C0DDE7",
"n@	c #4898B7",
"o@	c #3B88AA",
"p@	c #4484A5",
"q@	c #87A2BF",
"r@	c #A0B3D5",
"s@	c #DDD1DC",
"t@	c #5E90B0",
"u@	c #488AAE",
"v@	c #4891B4",
"w@	c #5BA3C1",
"x@	c #69AEC8",
"y@	c #8DC3D6",
"z@	c #6FB3CB",
"A@	c #87BBD1",
"B@	c #8CAEBF",
"C@	c #E5D4C4",
"D@	c #B4B6D9",
"E@	c #898BB9",
"F@	c #86B6C5",
"G@	c #A2C9D7",
"H@	c #8ABED1",
"I@	c #9EC8D9",
"J@	c #358AAF",
"K@	c #468EB2",
"L@	c #4989AB",
"M@	c #4581A5",
"N@	c #9CB3D2",
"O@	c #9BAFD3",
"P@	c #D8CFD9",
"Q@	c #E3D7DE",
"R@	c #8AAEC5",
"S@	c #3C87AD",
"T@	c #4693B7",
"U@	c #549FBF",
"V@	c #62AAC7",
"W@	c #6CAFCA",
"X@	c #88BAD1",
"Y@	c #90B2C4",
"Z@	c #E5D6C8",
"`@	c #B7B8D9",
" #	c #8E8FBA",
".#	c #81B1C5",
"+#	c #A8CADA",
"@#	c #64A3C1",
"##	c #408FB5",
"$#	c #4890B4",
"%#	c #488BB0",
"&#	c #5990B2",
"*#	c #A7B9D8",
"=#	c #9DB6E0",
"-#	c #95ABD0",
";#	c #DBD4DD",
">#	c #DCD2DB",
",#	c #BFCBD7",
"'#	c #448FB3",
")#	c #4895B8",
"!#	c #4C9CBE",
"~#	c #75B3CE",
"{#	c #59A0C1",
"]#	c #95B5C7",
"^#	c #E6D7CA",
"/#	c #BABBD9",
"(#	c #9393BB",
"_#	c #70A4BF",
":#	c #5395B8",
"<#	c #4992B7",
"[#	c #4891B6",
"}#	c #3E86AF",
"|#	c #7FA7C4",
"1#	c #ACB9DB",
"2#	c #A1B6DF",
"3#	c #A1B4D6",
"4#	c #DDD6DE",
"5#	c #DCD3DB",
"6#	c #E0DADF",
"7#	c #61A1C0",
"8#	c #4797B9",
"9#	c #4699BC",
"0#	c #569FC1",
"a#	c #97B8CA",
"b#	c #E7D9CD",
"c#	c #BDBDD9",
"d#	c #9998BD",
"e#	c #5191B6",
"f#	c #4E94B9",
"g#	c #4A92B8",
"h#	c #4991B7",
"i#	c #A2B7D2",
"j#	c #A3AFD4",
"k#	c #AABBDF",
"l#	c #8994B7",
"m#	c #D1CFD9",
"n#	c #E1D7DD",
"o#	c #ECDEE0",
"p#	c #96BDD0",
"q#	c #4093B8",
"r#	c #529CBF",
"s#	c #96BACC",
"t#	c #E7D9D0",
"u#	c #C0BFD9",
"v#	c #9D9CBF",
"w#	c #5193BA",
"x#	c #4D93BA",
"y#	c #619EC0",
"z#	c #AFB5D2",
"A#	c #A5AFD1",
"B#	c #ACB9D9",
"C#	c #4E5B85",
"D#	c #B9BDCB",
"E#	c #E8DEE3",
"F#	c #E3D9DD",
"G#	c #CBD4DC",
"H#	c #539DBF",
"I#	c #98BBCE",
"J#	c #E8DBD4",
"K#	c #C3C0D8",
"L#	c #A3A1C1",
"M#	c #4893BC",
"N#	c #87ADC9",
"O#	c #B1B0CE",
"P#	c #A9AECF",
"Q#	c #A9B1CC",
"R#	c #575E81",
"S#	c #A1A7B9",
"T#	c #A0A8B9",
"U#	c #E4DDE2",
"V#	c #E3DADD",
"W#	c #E8DFE0",
"X#	c #B3CAD7",
"Y#	c #E9DDD7",
"Z#	c #C6C2D7",
"`#	c #A6A5C3",
" $	c #A1B2CB",
".$	c #A8A8C8",
"+$	c #B0B3D1",
"@$	c #9AA2BC",
"#$	c #7C8397",
"$$	c #5E688C",
"%$	c #ABB1C0",
"&$	c #BFC2CB",
"*$	c #AAA6BB",
"=$	c #D9D5DC",
"-$	c #E7DDDF",
";$	c #E8DEDE",
">$	c #EADEDB",
",$	c #C7C3D7",
"'$	c #ABA4C2",
")$	c #ACA9C6",
"!$	c #B5B6D0",
"~$	c #7D88AA",
"{$	c #7985A3",
"]$	c #AAB2C0",
"^$	c #344570",
"/$	c #D3D6DE",
"($	c #CAC5D2",
"_$	c #B0A6BD",
":$	c #C5C1D0",
"<$	c #EDE4E4",
"[$	c #EBE1DF",
"}$	c #C6C2D4",
"|$	c #B0A7C3",
"1$	c #B0AFC9",
"2$	c #69759D",
"3$	c #808AAC",
"4$	c #A0A8C0",
"5$	c #B0B8C2",
"6$	c #BBC1D0",
"7$	c #E0E1E9",
"8$	c #D7CFDB",
"9$	c #BCB0C6",
"0$	c #ABA9BF",
"a$	c #EFE6E5",
"b$	c #C5C0D1",
"c$	c #A0A3BB",
"d$	c #636E95",
"e$	c #888FB0",
"f$	c #ACADC6",
"g$	c #C9CCD0",
"h$	c #49587E",
"i$	c #BFC7DB",
"j$	c #D3D9ED",
"k$	c #E2DEE5",
"l$	c #C2BED0",
"m$	c #9BA0B7",
"n$	c #9AA3B9",
"o$	c #7D84A3",
"p$	c #9EA1BB",
"q$	c #BDBDCF",
"r$	c #C4C7C9",
"s$	c #6C7692",
"t$	c #B8C3DE",
"u$	c #B5C0D5",
"v$	c #A2ACC2",
"w$	c #99A2B7",
"x$	c #929CB1",
"y$	c #A7B0BF",
"z$	c #8C96AA",
"                            .                                   ",
"                      + @ # $ % &                               ",
"                  * = - ; > , ' ) ! ~                           ",
"              { ] ^ / ( _ : < [ } | 1 2 3 4                     ",
"          5 6 7 8 9 0 a b c d e f g h i j k l m                 ",
"    n o p q r s t u v w x y z A B C D E F G H I J K             ",
"    L M o N O P Q R S y T U V W C X Y Z `  ...+.@.#.$.          ",
"    %.&.*.=.-.;.>.,.'.).!.~.{.].^./.(._.:.<.[.}.|.1.            ",
"    2.3.4.5.6.7.8.9.0.a.b.c.d.e.f.g.h.i.j.k.l.m.n.o.            ",
"    p.q.r.s.t.u.v.w.7.x.y.z.A.B.C.D.E.F.G.H.I.J.K.L.            ",
"    M.N.O.P.Q.R.S.T.U.V.W.X.Y.Z.`. +.+++@+#+$+%+&+*+            ",
"    =+-+;+>+,+'+)+!+~+{+=.]+^+/+(+_+:+<+[+}+|+1+2+3+            ",
"    4+5+6+7+8+9+0+a+b+c+d+e+]+f+g+h+i+j+k+l+m+n+o+p+            ",
"    q+r+s+t+u+v+w+x+y+z+A+B+C+D+E+F+G+H+I+J+K+L+M+N+            ",
"    O+P+Q+R+S+T+U+V+W+X+Y+Z+`+ @.@+@@@#@$@%@&@*@=@-@            ",
"      ;@>@,@'@)@!@~@{@]@^@/@(@_@:@<@[@}@|@1@2@3@4@5@            ",
"      6@7@8@9@0@a@b@c@d@e@f@g@h@i@j@k@l@m@n@o@p@q@r@            ",
"      s@t@u@v@w@x@y@z@A@B@C@D@E@F@G@H@I@J@K@L@M@N@O@            ",
"      P@Q@R@S@T@U@V@W@X@Y@Z@`@ #.#+#@###$#%#&#*#=#-#            ",
"        ;#>#,#'#)#!#~#{#]#^#/#(#_#:#<#[#}#|#1#2#3#              ",
"          4#5#6#7#8#9#0#a#b#c#d#e#f#g#h#i#j#k#l#                ",
"            m#n#o#p#q#r#s#t#u#v#w#x#y#z#A#B#C#                  ",
"              D#E#F#G#H#I#J#K#L#M#N#O#P#Q#R#                    ",
"              S#T#U#V#W#X#Y#Z#`# $.$+$@$#$$$                    ",
"              %$&$*$=$-$;$>$,$'$)$!$~${$]$^$                    ",
"                /$($_$:$<$[$}$|$1$2$3$4$5$                      ",
"                6$7$8$9$0$a$b$c$d$e$f$g$h$                      ",
"                  i$j$k$l$m$n$o$p$q$r$s$                        ",
"                      t$u$v$w$x$y$z$                            ",
"                                                                ",
"                                                                ",
"                                                                "};
